Untitled
…
just put in a datatable

## # A tibble: 526 x 4
## # Groups:   date, admin1 [266]
##    date       admin1 commodity        price
##    <date>     <chr>  <chr>            <dbl>
##  1 2020-07-15 Chin   Eggs (local)     1381.
##  2 2020-07-15 Chin   Tomatoes (local) 1381.
##  3 2020-07-15 Kachin Eggs (local)     1070.
##  4 2020-07-15 Kachin Tomatoes (local) 1070.
##  5 2020-07-15 Kayah  Eggs (local)     1140 
##  6 2020-07-15 Kayah  Tomatoes (local) 1140 
##  7 2020-07-15 Kayin  Eggs (local)     1248.
##  8 2020-07-15 Kayin  Tomatoes (local) 1248.
##  9 2020-07-15 Magway Eggs (local)     1150 
## 10 2020-07-15 Magway Tomatoes (local) 1150 
## # ... with 516 more rows
…
